\relax 
\@writefile{toc}{\contentsline {chapter}{\numberline {1}Bab 1. Pendahuluan}{3}\protected@file@percent }
\@writefile{lof}{\addvspace {10\p@ }}
\@writefile{lot}{\addvspace {10\p@ }}
\@writefile{toc}{\contentsline {section}{\numberline {1.1}Latar belakang}{3}\protected@file@percent }
\@writefile{toc}{\contentsline {section}{\numberline {1.2}Permasalahan}{3}\protected@file@percent }
\@writefile{toc}{\contentsline {section}{\numberline {1.3}Tujuan}{3}\protected@file@percent }
\@writefile{toc}{\contentsline {section}{\numberline {1.4}Batasan Masalah}{3}\protected@file@percent }
\@writefile{toc}{\contentsline {section}{\numberline {1.5}Sistematika Laporan}{3}\protected@file@percent }
\@writefile{toc}{\contentsline {section}{\numberline {1.6}Kontribusi}{3}\protected@file@percent }
\@writefile{toc}{\contentsline {section}{\numberline {1.7}Jadwal}{3}\protected@file@percent }
\@writefile{toc}{\contentsline {chapter}{\numberline {2}Bab 2. Dasar Teori}{5}\protected@file@percent }
\@writefile{lof}{\addvspace {10\p@ }}
\@writefile{lot}{\addvspace {10\p@ }}
\@writefile{toc}{\contentsline {section}{\numberline {2.1}Dasar 1}{5}\protected@file@percent }
\@writefile{toc}{\contentsline {section}{\numberline {2.2}Dasar 2}{5}\protected@file@percent }
\@writefile{toc}{\contentsline {section}{\numberline {2.3}Dasar 3}{5}\protected@file@percent }
\@writefile{toc}{\contentsline {section}{\numberline {2.4}Dasar 4}{5}\protected@file@percent }
\@writefile{toc}{\contentsline {section}{\numberline {2.5}Dasar 5}{5}\protected@file@percent }
\@writefile{toc}{\contentsline {chapter}{\numberline {3}Bab 3. Metodologi Penelitian}{7}\protected@file@percent }
\@writefile{lof}{\addvspace {10\p@ }}
\@writefile{lot}{\addvspace {10\p@ }}
\@writefile{toc}{\contentsline {section}{\numberline {3.1}Metode 1}{7}\protected@file@percent }
\@writefile{toc}{\contentsline {section}{\numberline {3.2}Metode 2}{7}\protected@file@percent }
\@writefile{toc}{\contentsline {section}{\numberline {3.3}Metode 3}{7}\protected@file@percent }
\@writefile{toc}{\contentsline {chapter}{\numberline {4}Bab 4. Hasil}{9}\protected@file@percent }
\@writefile{lof}{\addvspace {10\p@ }}
\@writefile{lot}{\addvspace {10\p@ }}
